{
  "page": 1,
  "total_results": 58,
  "total_pages": 3,
  "results": [
    {
      "popularity": 355.229,
      "vote_count": 3570,
      "video": false,
      "poster_path": "\/xBHvZcjRiWyobQ9kxBhO6B2dtRI.jpg",
      "id": 419704,
      "adult": false,
      "backdrop_path": "\/5BwqwxMEjeFtdknRV792Svo0K1v.jpg",
      "original_language": "en",
      "original_title": "Ad Astra",
      "genre_ids": [
        18,
        878
      ],
      "title": "Ad Astra",
      "vote_average": 6,
      "overview": "The near future, a time when both hope and hardships drive humanity to look to the stars and beyond. While a mysterious phenomenon menaces to destroy life on planet Earth, astronaut Roy McBride undertakes a mission across the immensity of space and its many perils to uncover the truth about a lost expedition that decades before boldly faced emptiness and silence in search of the unknown.",
      "release_date": "2019-09-17"
    },
    {
      "popularity": 1.4,
      "vote_count": 0,
      "video": false,
      "poster_path": "\/zKvaOMAYLrXSyiEHVdTLrixB1AH.jpg",
      "id": 608140,
      "adult": false,
      "backdrop_path": null,
      "original_language": "fr",
      "original_title": "Per aspera ad astra",
      "genre_ids": [
        16
      ],
      "title": "Per aspera ad astra",
      "vote_average": 0,
      "overview": "The daily life of a little hen housekeeper, torn between her work, her children and her old mother.",
      "release_date": "2019-06-10"
    },
    {
      "popularity": 0.6,
      "vote_count": 2,
      "video": false,
      "poster_path": null,
      "id": 270940,
      "adult": false,
      "backdrop_path": null,
      "original_language": "en",
      "original_title": "Ad Astra",
      "genre_ids": [],
      "title": "Ad Astra",
      "vote_average": 4,
      "overview": "An impressive parable where the artist’s creativity is paralyzed by the dull crowd can be seen as a metaphor for a totalitarian system. Cleverly designed animation shows the artist as a tied man whose creativity is hindered by the crowd. A visually attractive film with very interesting editing won an award at the Annecy festival in 1983.",
      "release_date": "1982-01-01"
    },
    {
      "popularity": 0.6,
      "id": 570820,
      "video": false,
      "vote_count": 0,
      "vote_average": 0,
      "title": "Ad Astra",
      "release_date": "2015-06-12",
      "original_language": "no",
      "original_title": "Ad Astra",
      "genre_ids": [
        99
      ],
      "backdrop_path": "\/aPn60JgfBXM0QwhynMZL4EClfkW.jpg",
      "adult": false,
      "overview": "Ad Astra is an artistic short documentary film that pays tribute to the Norwegian church and post-war postmodernist architects for its daring reform of the 50-70's innovative church building. Raw concrete and cold clean lines in a functionalist style were in line with society's development, but in stark contrast to what the church had previously represented. The film portrays 25 of these churches from all over the country",
      "poster_path": "\/iwqAaGkMWg4gHs2I6tfqIC8ytxG.jpg"
    },
    {
      "popularity": 0.6,
      "id": 595578,
      "video": false,
      "vote_count": 0,
      "vote_average": 0,
      "title": "Ad Astra",
      "release_date": "2018-01-01",
      "original_language": "en",
      "original_title": "Ad Astra",
      "genre_ids": [],
      "backdrop_path": null,
      "adult": false,
      "overview": "A life of a teacher and her students in a tiny school lost in a vast world of snow and mountains. A tale of courage, wisdom and humanity and an ode to endurance and stoicism. Beautifully shot and narrated.",
      "poster_path": null
    },
    {
      "popularity": 1.231,
      "id": 104865,
      "video": false,
      "vote_count": 9,
      "vote_average": 4.8,
      "title": "Per Aspera Ad Astra",
      "release_date": "1969-01-01",
      "original_language": "hr",
      "original_title": "Per Aspera Ad Astra",
      "genre_ids": [
        35,
        16
      ],
      "backdrop_path": null,
      "adult": false,
      "overview": "Short movie where a little old man trying to get up from the toilet. He gets a helping hand.",
      "poster_path": null
    },
    {
      "popularity": 0.6,
      "id": 528076,
      "video": false,
      "vote_count": 0,
      "vote_average": 0,
      "title": "Video Game Nightmare Astra Heroine Of The Dark Dimension",
      "release_date": "",
      "original_language": "en",
      "original_title": "Video Game Nightmare Astra Heroine Of The Dark Dimension",
      "genre_ids": [],
      "backdrop_path": null,
      "adult": false,
      "overview": "Dawn Murphy stars as a young woman who wishes she could be a heroine like Astra, the character from her video game. But when she suddenly finds herself in the Dark Dimension, Dawn learns she should have watched what she wished for! It's become all too real! She finds herself at the mercy of Skullface, attacked by robots, and left to be eaten alive by a dinosaur! Will Astra (Vanessa Carlton) be able to save her and return  her to our world or will Dawn be doomed to live in the Dark Dimension forever?",
      "poster_path": "\/luSkVO7ttb2tWhuqCSlYbmHGqDH.jpg"
    },
    {
      "popularity": 5.374,
      "vote_count": 32,
      "video": false,
      "poster_path": "\/50yO1vqWSZrz36KK5Z2IaU8SsIC.jpg",
      "id": 419407,
      "adult": false,
      "backdrop_path": "\/Uxsw2VqpHQqdrQGibrQl5VVk0X.jpg",
      "original_language": "en",
      "original_title": "Astral",
      "genre_ids": [
        18,
        878,
        53
      ],
      "title": "Astral",
      "vote_average": 5,
      "overview": "A detached university student faces the consequences of astral projection when he uses it to reconnect with his dead mother.",
      "release_date": "2018-10-13"
    },
    {
      "popularity": 2.31,
      "id": 329967,
      "video": false,
      "vote_count": 17,
      "vote_average": 6.2,
      "title": "Astragal",
      "release_date": "2015-04-08",
      "original_language": "fr",
      "original_title": "L'Astragale",
      "genre_ids": [
        10749,
        18
      ],
      "backdrop_path": "\/3zM24I3NxW8huQj7SAlvm62SXy6.jpg",
      "adult": false,
      "overview": "On a night of April 1957, Albertine, a brillant and rebel 19-year-old girl, jumps from the wall of the prison where she’s serving a sentence for a holdup. In her fall, a bone from her ankle breaks: the astragal. She is rescued by Julien, a justice fugitive, and so is born a burning passion between them. He takes her to Paris and hides her. But while he leads his gangster life here and there, the young woman struggles for her freedom and against the wounds inflicted by Julien’s absence, and writes poetry.",
      "poster_path": "\/4k5SDrHEk12Kl2pKIlG1DaYLRZ0.jpg"
    },
    {
      "popularity": 5.065,
      "vote_count": 85,
      "video": false,
      "poster_path": "\/aUsqP3347kkNIbcx05uglDIs5jb.jpg",
      "id": 52333,
      "adult": false,
      "backdrop_path": "\/oU4LPbbRKeF3KeqTm8DfmPANoEI.jpg",
      "original_language": "pt",
      "original_title": "Nosso Lar",
      "genre_ids": [
        18
      ],
      "title": "Astral City: A Spiritual Journey",
      "vote_average": 6.9,
      "overview": "The selfish Dr. André Luiz dies and awakes in the limbo called \"Umbral\". After a painful period in the gruesome swamp, he is rescued and brought in a white light to \"Nosso Lar\" (meaning \"Our Home\"). He finds a place of harmony, where people live in peace awaiting",
      "release_date": "2010-09-03"
    },
    {
      "popularity": 0.712,
      "vote_count": 3,
      "video": false,
      "poster_path": null,
      "id": 328337,
      "adult": false,
      "backdrop_path": null,
      "original_language": "he",
      "original_title": "גאליס: המסע לאסטרה",
      "genre_ids": [
        12
      ],
      "title": "Galis: The Journey to Astra",
      "vote_average": 6.2,
      "overview": "Galis - The Journey to Astra is a high-quality adventure film for children. The movie operates on two levels - as a suspenseful, entertaining fairytale, and as a coming-of-age story. Yonatan is at the height of his glory as the chosen one , but as always, there is only enough room at the top for one, and Yonatan has left all of his friends behind. When he finds himself in an alien world called Astra - Yonatan feels compelled to prove his abilities as a leader, and prove that he is the chosen one on Astra as he is on Earth. But through his Journey Yonatan will realize that this vanity is stopping him from listening to the people closest to him and the lost could be crucial..",
      "release_date": "2014-08-07"
    },
    {
      "popularity": 0.6,
      "vote_count": 0,
      "video": false,
      "poster_path": null,
      "id": 307909,
      "adult": false,
      "backdrop_path": null,
      "original_language": "en",
      "original_title": "Astram",
      "genre_ids": [],
      "title": "Astram",
      "vote_average": 0,
      "overview": "Telugu film from director Suresh Krishna and featuring music composed by S. A. Rajkumar.",
      "release_date": "2006-06-23"
    },
    {
      "popularity": 0.6,
      "id": 196562,
      "video": false,
      "vote_count": 0,
      "vote_average": 0,
      "title": "Fish Factory at Astrakhan",
      "release_date": "1908-06-05",
      "original_language": "en",
      "original_title": "Usine à Astrakhan",
      "genre_ids": [],
      "backdrop_path": null,
      "adult": false,
      "overview": "A French\/Russian documentary about a fishery.",
      "poster_path": null
    },
    {
      "popularity": 5.057,
      "id": 28751,
      "video": false,
      "vote_count": 25,
      "vote_average": 4.8,
      "title": "976-Evil II",
      "release_date": "1992-04-22",
      "original_language": "en",
      "original_title": "976-Evil II",
      "genre_ids": [
        27
      ],
      "backdrop_path": null,
      "adult": false,
      "overview": "After being bestowed with demonic powers following a phone call to Hell, a psychotic teacher begins a rampage of death and destruction in a small town, forcing a teen and her boyfriend to fight him off so that they can get away.",
      "poster_path": "\/aY3R5qHjk6KDkKeKvenVnAKIwDz.jpg"
    },
    {
      "popularity": 1.4,
      "vote_count": 0,
      "video": false,
      "poster_path": "\/2JFCIuEX8Qc6ODwAtSSBDB6EN1.jpg",
      "id": 597945,
      "adult": false,
      "backdrop_path": null,
      "original_language": "ja",
      "original_title": "アストラル・アブノーマル鈴木さん",
      "genre_ids": [
        18
      ],
      "title": "Astral Abnormal Suzuki",
      "vote_average": 0,
      "overview": "Suzuki Rara is left behind in the countryside due to mischief. She becomes a YouTuber, goes both crazy and offbeat. Wearing an eye-patch, loose track pants and often holding a sledgehammer she begins interacting with the locals, families and visitors.",
      "release_date": "2019-01-15"
    },
    {
      "popularity": 0.946,
      "vote_count": 2,
      "video": false,
      "poster_path": "\/9y4oeQOULLt1LjKvANtmprfm0N6.jpg",
      "id": 1868,
      "adult": false,
      "backdrop_path": null,
      "original_language": "fr",
      "original_title": "L'Astragale",
      "genre_ids": [
        80
      ],
      "title": "Ankle Bone",
      "vote_average": 8,
      "overview": "What unfolds is a tale of survival, as Anne (Marlene Jobert), in and out of the hospital and limping around on her wounded limb, drifts into a life of prostitution and suffers many a hard knock at the hands of men.",
      "release_date": "1968-01-01"
    },
    {
      "popularity": 0.6,
      "id": 190964,
      "video": false,
      "vote_count": 0,
      "vote_average": 0,
      "title": "Astrakhan Fisheries",
      "release_date": "1908-08-03",
      "original_language": "fr",
      "original_title": "Les pêcheries à Astrakhan",
      "genre_ids": [
        99
      ],
      "backdrop_path": null,
      "adult": false,
      "overview": "On a dock, men and women are bustling about. The fish is unloaded and brought to the covered market. The fish merchants gut the fish with dexterity, before salting it. While the men weigh the fish, the women rinse out their clothes and tools in the port’s water.",
      "poster_path": null
    },
    {
      "popularity": 1.731,
      "vote_count": 6,
      "video": false,
      "poster_path": "\/h1z1C1lxiLHkshMh5CtZVH3wFeO.jpg",
      "id": 113337,
      "adult": false,
      "backdrop_path": "\/w1t8N5XhkibklWoCxlVPXFaIhzC.jpg",
      "original_language": "en",
      "original_title": "The Astral Factor",
      "genre_ids": [
        27,
        9648,
        878
      ],
      "title": "The Astral Factor",
      "vote_average": 3.6,
      "overview": "Demonstrating that a little knowledge is a dangerous thing, a convicted strangler studies the paranormal and finds a way to render himself invisible. Once he escapes, he sets out to find and eliminate the five women who testified in his prosecution. A police lieutenant (Robert Foxworth) sets out to safeguard them, and bring the invisible killer to justice.",
      "release_date": "1978-02-01"
    },
    {
      "popularity": 0.6,
      "id": 438958,
      "video": false,
      "vote_count": 1,
      "vote_average": 6,
      "title": "Astray",
      "release_date": "1978-01-01",
      "original_language": "ro",
      "original_title": "Rătăcire",
      "genre_ids": [
        35,
        18
      ],
      "backdrop_path": null,
      "adult": false,
      "overview": "In the communist Romania of Nicolae Ceausescu, a young Romanian woman marries a German citizen just to leave the country.",
      "poster_path": "\/x6xkx99TXJWDzdy7nO8ydhwFrms.jpg"
    },
    {
      "popularity": 0.84,
      "vote_count": 0,
      "video": false,
      "poster_path": "\/37NugqC9pT3Qmtv6aRpjN0dqqVB.jpg",
      "id": 660881,
      "adult": false,
      "backdrop_path": null,
      "original_language": "tr",
      "original_title": "Astral Seyahat",
      "genre_ids": [
        27
      ],
      "title": "Astral Seyahat",
      "vote_average": 0,
      "overview": "",
      "release_date": "2019-05-31"
    }
  ]
}